<?xml version="1.0"?>
<!DOCTYPE svg PUBLIC "-//W3C//DTD SVG 1.1//EN" "http://www.w3.org/Graphics/SVG/1.1/DTD/svg11.dtd">
<svg xmlns="http://www.w3.org/2000/svg" xmlns:xlink="http://www.w3.org/1999/xlink" enable-background="new 0 0 1400 700" xml:space="preserve" viewBox="0 0 1e+03 7e+02" x="0px" y="0px" width="1400px" height="700px" version="1.1">
<g id="akira">
	<g>
		<g>
			<g>
				<path d="M332.891,189.215c12.953-12.952,33.949-12.952,46.9,0c12.951,12.953,12.952,33.949,0,46.899      l-89.644,89.646c-12.952,12.95-33.949,12.95-46.9,0c-12.951-12.952-12.952-33.949,0-46.901L332.891,189.215z" fill="#FFFFFF"/>
				<path d="M266.697,339.333c-9.889,0-19.186-3.851-26.179-10.843c-14.436-14.437-14.435-37.925,0-52.36l89.643-89.645      c6.993-6.993,16.291-10.845,26.18-10.845c9.889,0,19.186,3.852,26.179,10.845c14.435,14.438,14.435,37.926,0,52.358      l-89.644,89.646C285.883,335.482,276.586,339.333,266.697,339.333z M356.341,183.36c-7.827,0-15.186,3.049-20.722,8.584      l-89.643,89.645c-11.426,11.425-11.426,30.017,0,41.442c5.534,5.534,12.893,8.582,20.72,8.582s15.186-3.048,20.721-8.582      l89.644-89.646c11.425-11.423,11.425-30.014,0-41.441C371.527,186.409,364.168,183.36,356.341,183.36z"/>
			</g>
			<g>
				<path d="M335.259,280.647l44.532-44.533c12.952-12.95,12.951-33.946,0-46.899      c-12.951-12.952-33.948-12.952-46.9,0l-44.532,44.534L335.259,280.647z" fill="#009DDC"/>
				<path d="M335.259,286.105L282.9,233.749l47.262-47.264c6.993-6.993,16.291-10.845,26.18-10.845      c9.889,0,19.186,3.852,26.179,10.845c14.435,14.438,14.435,37.926,0,52.358L335.259,286.105z M293.817,233.749l41.442,41.44      l41.803-41.805c11.425-11.423,11.425-30.014,0-41.441c-5.535-5.534-12.893-8.583-20.72-8.583s-15.186,3.049-20.722,8.584      L293.817,233.749z"/>
			</g>
			<path d="M349.278,249.641c-0.988,0-1.976-0.377-2.729-1.13c-1.507-1.508-1.507-3.951,0-5.459l20.089-20.09     c4.868-4.867,5.651-12.567,1.863-18.311c-1.174-1.779-0.683-4.173,1.096-5.347s4.173-0.684,5.347,1.097     c5.798,8.788,4.6,20.572-2.848,28.02l-20.088,20.09C351.253,249.264,350.266,249.641,349.278,249.641z" fill="#FFFFFF"/>
		</g>
	</g>
</g>
</svg>
