<?xml version="1.0"?>
<!DOCTYPE svg PUBLIC "-//W3C//DTD SVG 1.1//EN" "http://www.w3.org/Graphics/SVG/1.1/DTD/svg11.dtd">
<svg xmlns="http://www.w3.org/2000/svg" width="200mm" height="200mm">
	<rect fill="red" x="0mm" y="0mm" width="100mm" height="100mm" rx="10mm" ry="10mm"/>
	<rect fill="green" x="50mm" y="10mm" width="100mm" height="100mm" rx="10mm" ry="10mm"/>
	<rect fill="blue" x="25mm" y="20mm" width="100mm" height="100mm" rx="10mm" ry="10mm"/>
	<svg xmlns="http://www.w3.org/2000/svg" x="40mm" y="70mm" width="110mm" height="55mm">
		<circle fill="none" stroke="white" stroke-width="10mm" cx="45mm" cy="0mm" r="40mm"/>
	</svg>
</svg>
